username,timestamp,peer,bare_peer,xml,txt,id,kind,nick,created_at
neftali,1.53627E+15,omar-android@10.100.70.223,omar-android@10.100.70.223,<message xml:lang='en' to='omar-android@10.100.70.223' from='neftali@10.100.70.223/167124124927786317012018' type='chat' id='31ee12ea-a486-4baa-a1cb-2e22dd812bf8' xmlns='jabber:client'><markable xmlns='urn:xmpp:chat-markers:0'/><origin-id xmlns='urn:xmpp:sid:0' id='31ee12ea-a486-4baa-a1cb-2e22dd812bf8'/><body>Hola Omar</body></message>,Hola Omar,84,chat,,06/09/2018 17:30
omar-android,1.53627E+15,neftali@10.100.70.223/167124124927786317012018,neftali@10.100.70.223,<message xml:lang='en' to='omar-android@10.100.70.223' from='neftali@10.100.70.223/167124124927786317012018' type='chat' id='31ee12ea-a486-4baa-a1cb-2e22dd812bf8' xmlns='jabber:client'><markable xmlns='urn:xmpp:chat-markers:0'/><origin-id xmlns='urn:xmpp:sid:0' id='31ee12ea-a486-4baa-a1cb-2e22dd812bf8'/><body>Hola Omar</body></message>,Hola Omar,85,chat,,06/09/2018 17:30
omar-android,1.53627E+15,neftali@10.100.70.223/167124124927786317012018,neftali@10.100.70.223,<message xml:lang='en' to='neftali@10.100.70.223/167124124927786317012018' from='omar-android@10.100.70.223/phone' type='chat' xmlns='jabber:client'><received xmlns='urn:xmpp:chat-markers:0' id='31ee12ea-a486-4baa-a1cb-2e22dd812bf8'/><store xmlns='urn:xmpp:hints'/></message>,,86,chat,,06/09/2018 17:30
neftali,1.53627E+15,omar-android@10.100.70.223/phone,omar-android@10.100.70.223,<message xml:lang='en' to='neftali@10.100.70.223/167124124927786317012018' from='omar-android@10.100.70.223/phone' type='chat' xmlns='jabber:client'><received xmlns='urn:xmpp:chat-markers:0' id='31ee12ea-a486-4baa-a1cb-2e22dd812bf8'/><store xmlns='urn:xmpp:hints'/></message>,,87,chat,,06/09/2018 17:30
omar-android,1.53627E+15,neftali@10.100.70.223/167124124927786317012018,neftali@10.100.70.223,<message xml:lang='en' to='neftali@10.100.70.223/167124124927786317012018' from='omar-android@10.100.70.223/phone' type='chat' xmlns='jabber:client'><displayed xmlns='urn:xmpp:chat-markers:0' id='31ee12ea-a486-4baa-a1cb-2e22dd812bf8'/><store xmlns='urn:xmpp:hints'/></message>,,88,chat,,06/09/2018 17:30
neftali,1.53627E+15,omar-android@10.100.70.223/phone,omar-android@10.100.70.223,<message xml:lang='en' to='neftali@10.100.70.223/167124124927786317012018' from='omar-android@10.100.70.223/phone' type='chat' xmlns='jabber:client'><displayed xmlns='urn:xmpp:chat-markers:0' id='31ee12ea-a486-4baa-a1cb-2e22dd812bf8'/><store xmlns='urn:xmpp:hints'/></message>,,89,chat,,06/09/2018 17:30
2yzs94bkhxgbn@conference.10.100.70.223,1.53627E+15,neftali@10.100.70.223/167124124927786317012018,neftali@10.100.70.223,<message xml:lang='en' to='2yzs94bkhxgbn@conference.10.100.70.223' from='neftali@10.100.70.223/167124124927786317012018' type='groupchat' id='381ad71c-8771-4f05-b8fe-14650dca9104' xmlns='jabber:client'><markable xmlns='urn:xmpp:chat-markers:0'/><origin-id xmlns='urn:xmpp:sid:0' id='381ad71c-8771-4f05-b8fe-14650dca9104'/><body>Hola grupo</body></message>,Hola grupo,90,groupchat,neftali,06/09/2018 17:30
neftali,1.53627E+15,omar-android@10.100.70.223,omar-android@10.100.70.223,<message xml:lang='en' to='omar-android@10.100.70.223' from='neftali@10.100.70.223/167124124927786317012018' type='chat' id='4dfc76ce-1dc3-43c4-a6e8-dad4d32cf04c' xmlns='jabber:client'><markable xmlns='urn:xmpp:chat-markers:0'/><origin-id xmlns='urn:xmpp:sid:0' id='4dfc76ce-1dc3-43c4-a6e8-dad4d32cf04c'/><body>??@</body></message>,??@,91,chat,,06/09/2018 17:31
omar-android,1.53627E+15,neftali@10.100.70.223/167124124927786317012018,neftali@10.100.70.223,<message xml:lang='en' to='omar-android@10.100.70.223' from='neftali@10.100.70.223/167124124927786317012018' type='chat' id='4dfc76ce-1dc3-43c4-a6e8-dad4d32cf04c' xmlns='jabber:client'><markable xmlns='urn:xmpp:chat-markers:0'/><origin-id xmlns='urn:xmpp:sid:0' id='4dfc76ce-1dc3-43c4-a6e8-dad4d32cf04c'/><body>??@</body></message>,??@,92,chat,,06/09/2018 17:31
omar-android,1.53627E+15,neftali@10.100.70.223/167124124927786317012018,neftali@10.100.70.223,<message xml:lang='en' to='neftali@10.100.70.223/167124124927786317012018' from='omar-android@10.100.70.223/phone' type='chat' xmlns='jabber:client'><received xmlns='urn:xmpp:chat-markers:0' id='4dfc76ce-1dc3-43c4-a6e8-dad4d32cf04c'/><store xmlns='urn:xmpp:hints'/></message>,,93,chat,,06/09/2018 17:31
neftali,1.53627E+15,omar-android@10.100.70.223/phone,omar-android@10.100.70.223,<message xml:lang='en' to='neftali@10.100.70.223/167124124927786317012018' from='omar-android@10.100.70.223/phone' type='chat' xmlns='jabber:client'><received xmlns='urn:xmpp:chat-markers:0' id='4dfc76ce-1dc3-43c4-a6e8-dad4d32cf04c'/><store xmlns='urn:xmpp:hints'/></message>,,94,chat,,06/09/2018 17:31
omar-android,1.53627E+15,neftali@10.100.70.223/167124124927786317012018,neftali@10.100.70.223,<message xml:lang='en' to='neftali@10.100.70.223/167124124927786317012018' from='omar-android@10.100.70.223/phone' type='chat' xmlns='jabber:client'><displayed xmlns='urn:xmpp:chat-markers:0' id='4dfc76ce-1dc3-43c4-a6e8-dad4d32cf04c'/><store xmlns='urn:xmpp:hints'/></message>,,95,chat,,06/09/2018 17:32
neftali,1.53627E+15,omar-android@10.100.70.223/phone,omar-android@10.100.70.223,<message xml:lang='en' to='neftali@10.100.70.223/167124124927786317012018' from='omar-android@10.100.70.223/phone' type='chat' xmlns='jabber:client'><displayed xmlns='urn:xmpp:chat-markers:0' id='4dfc76ce-1dc3-43c4-a6e8-dad4d32cf04c'/><store xmlns='urn:xmpp:hints'/></message>,,96,chat,,06/09/2018 17:32
omar-android,1.53627E+15,villeda@10.100.70.223,villeda@10.100.70.223,<message xml:lang='en' to='villeda@10.100.70.223' from='omar-android@10.100.70.223/phone' type='chat' id='9c0d6faa-3b6d-4ae8-99e6-4f4026c86af9' xmlns='jabber:client'><markable xmlns='urn:xmpp:chat-markers:0'/><origin-id xmlns='urn:xmpp:sid:0' id='9c0d6faa-3b6d-4ae8-99e6-4f4026c86af9'/><body>Hola</body></message>,Hola,97,chat,,06/09/2018 17:38
villeda,1.53627E+15,omar-android@10.100.70.223/phone,omar-android@10.100.70.223,<message xml:lang='en' to='villeda@10.100.70.223' from='omar-android@10.100.70.223/phone' type='chat' id='9c0d6faa-3b6d-4ae8-99e6-4f4026c86af9' xmlns='jabber:client'><markable xmlns='urn:xmpp:chat-markers:0'/><origin-id xmlns='urn:xmpp:sid:0' id='9c0d6faa-3b6d-4ae8-99e6-4f4026c86af9'/><body>Hola</body></message>,Hola,98,chat,,06/09/2018 17:38
2yzs94bkhxgbn@conference.10.100.70.223,1.53627E+15,omar-android@10.100.70.223/phone,omar-android@10.100.70.223,<message xml:lang='en' to='2yzs94bkhxgbn@conference.10.100.70.223' from='omar-android@10.100.70.223/phone' type='groupchat' xmlns='jabber:client'><displayed xmlns='urn:xmpp:chat-markers:0' sender='2yzs94bkhxgbn@conference.10.100.70.223/neftali' id='381ad71c-8771-4f05-b8fe-14650dca9104'/><store xmlns='urn:xmpp:hints'/></message>,,99,groupchat,omar-android,06/09/2018 17:39
omar-android,1.53627E+15,neftali@10.100.70.223/167124124927786317012018,neftali@10.100.70.223,<message xml:lang='en' to='neftali@10.100.70.223/167124124927786317012018' from='omar-android@10.100.70.223/phone' type='chat' xmlns='jabber:client'><received xmlns='urn:xmpp:chat-markers:0' id='8816ea94-7899-41e1-8b48-ed2d61319356'/><store xmlns='urn:xmpp:hints'/></message>,,100,chat,,06/09/2018 17:40
neftali,1.53627E+15,omar-android@10.100.70.223/phone,omar-android@10.100.70.223,<message xml:lang='en' to='neftali@10.100.70.223/167124124927786317012018' from='omar-android@10.100.70.223/phone' type='chat' xmlns='jabber:client'><received xmlns='urn:xmpp:chat-markers:0' id='8816ea94-7899-41e1-8b48-ed2d61319356'/><store xmlns='urn:xmpp:hints'/></message>,,101,chat,,06/09/2018 17:40
omar-android,1.53627E+15,neftali@10.100.70.223/167124124927786317012018,neftali@10.100.70.223,<message xml:lang='en' to='neftali@10.100.70.223/167124124927786317012018' from='omar-android@10.100.70.223/phone' type='chat' xmlns='jabber:client'><displayed xmlns='urn:xmpp:chat-markers:0' id='8816ea94-7899-41e1-8b48-ed2d61319356'/><store xmlns='urn:xmpp:hints'/></message>,,102,chat,,06/09/2018 17:40
neftali,1.53627E+15,omar-android@10.100.70.223/phone,omar-android@10.100.70.223,<message xml:lang='en' to='neftali@10.100.70.223/167124124927786317012018' from='omar-android@10.100.70.223/phone' type='chat' xmlns='jabber:client'><displayed xmlns='urn:xmpp:chat-markers:0' id='8816ea94-7899-41e1-8b48-ed2d61319356'/><store xmlns='urn:xmpp:hints'/></message>,,103,chat,,06/09/2018 17:40
neftali,1.53627E+15,victor17@10.100.70.223,victor17@10.100.70.223,<message xml:lang='en' to='victor17@10.100.70.223' from='neftali@10.100.70.223/167124124927786317012018' type='chat' id='01e0fdc8-db37-41af-9905-0653a0536c4a' xmlns='jabber:client'><markable xmlns='urn:xmpp:chat-markers:0'/><origin-id xmlns='urn:xmpp:sid:0' id='01e0fdc8-db37-41af-9905-0653a0536c4a'/><body>Hola</body></message>,Hola,104,chat,,06/09/2018 17:45
victor17,1.53627E+15,neftali@10.100.70.223/167124124927786317012018,neftali@10.100.70.223,<message xml:lang='en' to='victor17@10.100.70.223' from='neftali@10.100.70.223/167124124927786317012018' type='chat' id='01e0fdc8-db37-41af-9905-0653a0536c4a' xmlns='jabber:client'><markable xmlns='urn:xmpp:chat-markers:0'/><origin-id xmlns='urn:xmpp:sid:0' id='01e0fdc8-db37-41af-9905-0653a0536c4a'/><body>Hola</body></message>,Hola,105,chat,,06/09/2018 17:45
victor17,1.53627E+15,neftali@10.100.70.223/167124124927786317012018,neftali@10.100.70.223,<message xml:lang='en' to='neftali@10.100.70.223/167124124927786317012018' from='victor17@10.100.70.223/phone' type='chat' xmlns='jabber:client'><received xmlns='urn:xmpp:chat-markers:0' id='01e0fdc8-db37-41af-9905-0653a0536c4a'/><store xmlns='urn:xmpp:hints'/></message>,,106,chat,,06/09/2018 17:45
neftali,1.53627E+15,victor17@10.100.70.223/phone,victor17@10.100.70.223,<message xml:lang='en' to='neftali@10.100.70.223/167124124927786317012018' from='victor17@10.100.70.223/phone' type='chat' xmlns='jabber:client'><received xmlns='urn:xmpp:chat-markers:0' id='01e0fdc8-db37-41af-9905-0653a0536c4a'/><store xmlns='urn:xmpp:hints'/></message>,,107,chat,,06/09/2018 17:45
,,,,,,,,,
,,,,,,,,,
,,,,,,,,,
,,,,,,,,,
,,,,,,,,,
,,,,,,,,,
,,,,,,,,,
,,,,,,,,,
,,,,,,,,,
,,,,,,,,,
,,,,,,,,,
,,,,,,,,,
,,,,,,,,,
,,,,,,,,,
,,,,,,,,,
,,,,,,,,,
,,,,,,,,,
,,,,,,,,,
,,,,,,,,,
,,,,,,,,,
,,,,,,,,,
,,,,,,,,,
,,,,,,,,,
,,,,,,,,,
,,,,,,,,,
,,,,,,,,,
,,,,,,,,,
,,,,,,,,,
,,,,,,,,,
,,,,,,,,,
,,,,,,,,,
,,,,,,,,,
,,,,,,,,,
,,,,,,,,,
,,,,,,,,,
,,,,,,,,,
,,,,,,,,,
,,,,,,,,,
,,,,,,,,,
,,,,,,,,,
,,,,,,,,,
,,,,,,,,,
,,,,,,,,,
,,,,,,,,,
,,,,,,,,,
,,,,,,,,,
,,,,,,,,,
,,,,,,,,,
,,,,,,,,,
,,,,,,,,,
,,,,,,,,,
,,,,,,,,,
,,,,,,,,,
,,,,,,,,,
,,,,,,,,,
,,,,,,,,,
,,,,,,,,,
,,,,,,,,,
,,,,,,,,,
,,,,,,,,,
,,,,,,,,,
,,,,,,,,,
,,,,,,,,,
,,,,,,,,,
,,,,,,,,,
,,,,,,,,,
,,,,,,,,,
,,,,,,,,,
,,,,,,,,,
,,,,,,,,,
,,,,,,,,,
,,,,,,,,,
,,,,,,,,,
,,,,,,,,,
,,,,,,,,,
,,,,,,,,,
,,,,,,,,,
,,,,,,,,,
,,,,,,,,,
,,,,,,,,,
,,,,,,,,,
,,,,,,,,,
,,,,,,,,,
,,,,,,,,,
,,,,,,,,,
,,,,,,,,,
,,,,,,,,,
,,,,,,,,,
,,,,,,,,,
,,,,,,,,,
,,,,,,,,,
,,,,,,,,,
,,,,,,,,,
,,,,,,,,,
,,,,,,,,,
,,,,,,,,,
,,,,,,,,,
,,,,,,,,,
,,,,,,,,,
,,,,,,,,,
,,,,,,,,,
,,,,,,,,,
,,,,,,,,,
,,,,,,,,,
,,,,,,,,,
,,,,,,,,,
,,,,,,,,,
,,,,,,,,,
,,,,,,,,,
,,,,,,,,,
,,,,,,,,,
,,,,,,,,,
,,,,,,,,,
,,,,,,,,,
,,,,,,,,,
,,,,,,,,,
,,,,,,,,,
,,,,,,,,,
,,,,,,,,,
,,,,,,,,,
,,,,,,,,,
,,,,,,,,,
,,,,,,,,,
,,,,,,,,,
,,,,,,,,,
,,,,,,,,,
,,,,,,,,,
,,,,,,,,,
,,,,,,,,,
,,,,,,,,,
,,,,,,,,,
,,,,,,,,,
,,,,,,,,,
,,,,,,,,,
,,,,,,,,,
,,,,,,,,,
,,,,,,,,,
,,,,,,,,,
,,,,,,,,,
,,,,,,,,,
,,,,,,,,,
,,,,,,,,,
,,,,,,,,,
,,,,,,,,,
,,,,,,,,,
,,,,,,,,,
,,,,,,,,,
,,,,,,,,,
,,,,,,,,,
,,,,,,,,,
,,,,,,,,,
,,,,,,,,,
,,,,,,,,,
,,,,,,,,,
,,,,,,,,,
,,,,,,,,,
,,,,,,,,,
,,,,,,,,,
,,,,,,,,,
,,,,,,,,,
,,,,,,,,,
,,,,,,,,,
,,,,,,,,,
,,,,,,,,,
,,,,,,,,,
,,,,,,,,,
,,,,,,,,,
,,,,,,,,,
,,,,,,,,,
,,,,,,,,,
,,,,,,,,,
,,,,,,,,,
,,,,,,,,,
,,,,,,,,,
,,,,,,,,,
,,,,,,,,,
,,,,,,,,,
,,,,,,,,,
,,,,,,,,,
,,,,,,,,,
,,,,,,,,,
,,,,,,,,,
,,,,,,,,,
,,,,,,,,,
,,,,,,,,,
,,,,,,,,,
,,,,,,,,,
,,,,,,,,,
,,,,,,,,,
,,,,,,,,,
,,,,,,,,,
,,,,,,,,,
,,,,,,,,,
,,,,,,,,,
,,,,,,,,,
,,,,,,,,,
,,,,,,,,,
,,,,,,,,,
,,,,,,,,,
,,,,,,,,,
,,,,,,,,,
,,,,,,,,,
,,,,,,,,,
,,,,,,,,,
,,,,,,,,,
,,,,,,,,,
,,,,,,,,,
,,,,,,,,,
,,,,,,,,,
,,,,,,,,,
,,,,,,,,,
,,,,,,,,,
,,,,,,,,,
,,,,,,,,,
,,,,,,,,,
,,,,,,,,,
,,,,,,,,,
,,,,,,,,,
,,,,,,,,,
,,,,,,,,,
,,,,,,,,,
,,,,,,,,,
,,,,,,,,,
,,,,,,,,,
,,,,,,,,,
,,,,,,,,,
,,,,,,,,,
,,,,,,,,,
,,,,,,,,,
,,,,,,,,,
,,,,,,,,,
,,,,,,,,,
,,,,,,,,,
,,,,,,,,,
,,,,,,,,,
,,,,,,,,,
,,,,,,,,,
,,,,,,,,,
,,,,,,,,,
,,,,,,,,,
,,,,,,,,,
,,,,,,,,,
,,,,,,,,,
,,,,,,,,,
,,,,,,,,,
,,,,,,,,,
,,,,,,,,,
,,,,,,,,,
,,,,,,,,,
,,,,,,,,,
,,,,,,,,,
,,,,,,,,,
,,,,,,,,,
,,,,,,,,,
,,,,,,,,,
,,,,,,,,,
,,,,,,,,,
,,,,,,,,,
,,,,,,,,,
,,,,,,,,,
,,,,,,,,,
,,,,,,,,,
,,,,,,,,,
,,,,,,,,,
,,,,,,,,,
,,,,,,,,,
,,,,,,,,,
,,,,,,,,,
,,,,,,,,,
,,,,,,,,,
,,,,,,,,,
,,,,,,,,,
,,,,,,,,,
,,,,,,,,,
,,,,,,,,,
,,,,,,,,,
,,,,,,,,,
,,,,,,,,,
,,,,,,,,,
,,,,,,,,,
,,,,,,,,,
,,,,,,,,,
,,,,,,,,,
,,,,,,,,,
,,,,,,,,,
